<?xml version="1.0" standalone="no"?>
<!DOCTYPE svg PUBLIC "-//W3C//DTD SVG 20010904//EN" "http://www.w3.org/TR/2001/REC-SVG-20010904/DTD/svg10.dtd">
<!-- Created using Krita: http://krita.org -->
<svg xmlns="http://www.w3.org/2000/svg" 
    xmlns:xlink="http://www.w3.org/1999/xlink"
    xmlns:krita="http://krita.org/namespaces/svg/krita"
    xmlns:sodipodi="http://sodipodi.sourceforge.net/DTD/sodipodi-0.dtd"
    width="785.52pt"
    height="785.52pt"
    viewBox="0 0 785.52 785.52">
<defs/>
<path id="shape0" transform="matrix(-0.999999975135898 0 0 0.999999975135898 260.493269505433 339.611216443073)" fill="#650000" fill-rule="evenodd" stroke="#600000" stroke-width="3.6" stroke-linecap="square" stroke-linejoin="bevel" d="M0 0L21.1893 8.71209L23.7685 31.161L13.3851 39.6595C13.1776 39.7152 8.71585 26.4954 0 0Z"/><path id="shape1" transform="matrix(-0.999999975135898 0 0 0.999999975135898 233.531929999307 347.304806835535)" fill="#4e0000" fill-rule="evenodd" stroke="#510000" stroke-width="3.6" stroke-linecap="square" stroke-linejoin="bevel" d="M0 2.18043L100.644 0L101.147 20.0639L0.807692 19.9785C0.754729 19.9785 0.485498 14.0458 0 2.18043Z"/><path id="shape2" transform="matrix(0.999999975135898 0 0 0.999999975135898 443.528073105381 328.245537913404)" fill="#99a3a1" fill-rule="evenodd" stroke="#99a3a1" stroke-width="3.6" stroke-linecap="square" stroke-linejoin="bevel" d="M0.0218193 61.338C-0.0654579 61.338 0.109096 40.892 0.545482 0L138.967 0.0650156L139.622 61.338C139.302 62.539 92.7684 62.539 0.0218193 61.338Z"/><path id="shape3" transform="matrix(0.999999975135898 0 0 0.999999975135898 244.972484558929 306.698007308075)" fill="#800000" fill-rule="evenodd" stroke="#800000" stroke-width="3.6" stroke-linecap="square" stroke-linejoin="bevel" d="M0 84.4209L20.0301 21.9753L75.1893 0L136.589 18.0743L160.852 84.4209C160.852 85.9856 107.235 85.9856 0 84.4209Z"/><path id="shape4" transform="matrix(-0.999999975135898 0 0 0.999999975135898 137.141536830642 339.720747994051)" fill="#800000" fill-rule="evenodd" stroke="#800000" stroke-width="3.6" stroke-linecap="square" stroke-linejoin="bevel" d="M0 0.486L1.02352 35.235L19.2549 35.4058L16.6535 0C16.6535 0 11.1023 0.162 0 0.486Z"/><path id="shape5" transform="matrix(-0.999999975135898 0 0 0.999999975135898 238.049787985521 346.256118088766)" fill="#800000" fill-rule="evenodd" stroke="#800000" stroke-width="3.6" stroke-linecap="square" stroke-linejoin="bevel" d="M0 0.26927L11.168 0L13.1074 24.7072L2.31742 25.7744C2.31742 25.7022 1.54495 17.2005 0 0.26927Z"/><path id="shape6" transform="matrix(-0.999999975135898 0 0 0.999999975135898 386.317882141321 325.711553758181)" fill="#b27169" fill-rule="evenodd" stroke="#b26d69" stroke-width="3.6" stroke-linecap="square" stroke-linejoin="bevel" d="M0 58.4397L27.6888 55.7555L34.9667 42.2137L29.7276 33.901L28.5897 22.5511L34.3265 12.7152L39.9213 3.77091L32.9516 0L24.6782 2.11765L16.9499 5.7771L9.83808 10.8112L4.9783 19.9226L1.89649 28.2539C1.61202 29.5666 0.979856 39.6286 0 58.4397Z"/><path id="shape0" transform="translate(-58.3802318646866, 347.836213633073)" fill="#b27169" d="M0 0L12.2165 21.1595"/>
</svg>
