<?xml version="1.0" standalone="no"?>
<!DOCTYPE svg PUBLIC "-//W3C//DTD SVG 20010904//EN" "http://www.w3.org/TR/2001/REC-SVG-20010904/DTD/svg10.dtd">
<!-- Created using Krita: http://krita.org -->
<svg xmlns="http://www.w3.org/2000/svg" 
    xmlns:xlink="http://www.w3.org/1999/xlink"
    xmlns:krita="http://krita.org/namespaces/svg/krita"
    xmlns:sodipodi="http://sodipodi.sourceforge.net/DTD/sodipodi-0.dtd"
    width="785.52pt"
    height="785.52pt"
    viewBox="0 0 785.52 785.52">
<defs/>
<ellipse id="shape0" transform="translate(309.599999522658, 349.200000073437)" rx="72" ry="67.68" cx="72" cy="67.68" fill="#181818" fill-rule="evenodd" stroke="#181818" stroke-width="28.8" stroke-linecap="square" stroke-linejoin="bevel"/>
</svg>
