<?xml version="1.0" standalone="no"?>
<!DOCTYPE svg PUBLIC "-//W3C//DTD SVG 20010904//EN" "http://www.w3.org/TR/2001/REC-SVG-20010904/DTD/svg10.dtd">
<!-- Created using Krita: http://krita.org -->
<svg xmlns="http://www.w3.org/2000/svg" 
    xmlns:xlink="http://www.w3.org/1999/xlink"
    xmlns:krita="http://krita.org/namespaces/svg/krita"
    xmlns:sodipodi="http://sodipodi.sourceforge.net/DTD/sodipodi-0.dtd"
    width="785.455pt"
    height="785.455pt"
    viewBox="0 0 785.455 785.455">
<defs/>
<ellipse id="shape0" transform="matrix(0.981992503973305 -0.188919882861062 0.188919882861062 0.981992503973305 407.50491173723 348.732349406812)" rx="21.9272727272727" ry="63.1636363636364" cx="21.9272727272727" cy="63.1636363636364" fill="#588eb4" fill-rule="evenodd" stroke="#507fa1" stroke-width="3.27272727272727" stroke-linecap="square" stroke-linejoin="bevel"/><ellipse id="shape1" transform="translate(395.672727272727, 474.545454545455)" rx="23.2363636363636" ry="68.7272727272727" cx="23.2363636363636" cy="68.7272727272727" fill="#588eb4" fill-rule="evenodd" stroke="#507fa1" stroke-width="3.27272727272727" stroke-linecap="square" stroke-linejoin="bevel"/><ellipse id="shape2" transform="translate(353.127272727273, 474.545454545455)" rx="23.2363636363636" ry="68.7272727272727" cx="23.2363636363636" cy="68.7272727272727" fill="#5d95bd" fill-rule="evenodd" stroke="#4a82aa" stroke-width="3.27272727272727" stroke-linecap="square" stroke-linejoin="bevel"/><ellipse id="shape3" transform="translate(342, 326.290909090909)" rx="52.6909090909091" ry="92.6181818181818" cx="52.6909090909091" cy="92.6181818181818" fill="#5d95bd" fill-rule="evenodd" stroke="#4a82aa" stroke-width="3.27272727272727" stroke-linecap="square" stroke-linejoin="bevel"/><ellipse id="shape4" transform="matrix(0.941427900167046 0.337214336568103 -0.337214336568103 0.941427900167046 353.485403820543 337.22268789912)" rx="24.5454545454545" ry="64.1454545454545" cx="24.5454545454545" cy="64.1454545454545" fill="#5d95bd" fill-rule="evenodd" stroke="#4a82aa" stroke-width="3.27272727272727" stroke-linecap="square" stroke-linejoin="bevel"/><ellipse id="shape5" transform="translate(322.036363636364, 299.781818181818)" rx="69.3818181818182" ry="26.1818181818182" cx="69.3818181818182" cy="26.1818181818182" fill="#d6421e" fill-rule="evenodd" stroke="#c03e1e" stroke-width="3.27272727272727" stroke-linecap="square" stroke-linejoin="bevel"/><circle id="shape6" transform="translate(327.272727272727, 185.563638327971)" r="65.4545454545455" cx="65.4545454545455" cy="65.4545454545455" fill="#5d95bd" fill-rule="evenodd" stroke="#4a82aa" stroke-width="3.27272727272727" stroke-linecap="square" stroke-linejoin="bevel"/><ellipse id="shape7" transform="translate(377.345454545455, 236.618181818182)" rx="15.3818181818182" ry="18.6545454545455" cx="15.3818181818182" cy="18.6545454545455" fill="#fffae1" fill-rule="evenodd" stroke="#f9f2d0" stroke-width="3.27272727272727" stroke-linecap="square" stroke-linejoin="bevel"/><ellipse id="shape8" transform="translate(432.327272727273, 237.272727272727)" rx="14.7272727272727" ry="18" cx="14.7272727272727" cy="18" fill="#fffae1" fill-rule="evenodd" stroke="#f9f2d0" stroke-width="3.27272727272727" stroke-linecap="square" stroke-linejoin="bevel"/><path id="shape9" transform="matrix(0.715391347701282 0 0 0.74144778892634 305.820976072491 101.487006958444)" fill="#d6421e" fill-rule="evenodd" stroke="#c03e1e" stroke-width="3.27272727272727" stroke-linecap="square" stroke-linejoin="bevel" d="M35.5151 188.51C33.2261 194.173 39.9567 176.552 44.6218 172.61C55.4374 163.47 69.8161 161.229 83.4493 160.955C100.334 160.616 192.923 178.036 196.662 150.529C201.872 112.194 108.753 76.5231 82.994 59.635C69.3364 50.681 58.361 41.3585 50.21 27.0532C48.4424 23.9511 49.0295 0.740283 43.7111 0.0568206C35.4566 -1.00395 21.2159 13.0831 17.1776 17.6324C-10.6303 48.959 -0.261587 105.686 17.2604 141.778C20.1247 147.678 29.1893 156.103 31.1274 161.998C32.7485 166.928 22.9816 203.479 36.7155 181.621C37.8458 179.823 38.4955 178.532 38.4955 176.445"/>
</svg>
