<?xml version="1.0" standalone="no"?>
<!DOCTYPE svg PUBLIC "-//W3C//DTD SVG 20010904//EN" "http://www.w3.org/TR/2001/REC-SVG-20010904/DTD/svg10.dtd">
<!-- Created using Krita: http://krita.org -->
<svg xmlns="http://www.w3.org/2000/svg" 
    xmlns:xlink="http://www.w3.org/1999/xlink"
    xmlns:krita="http://krita.org/namespaces/svg/krita"
    xmlns:sodipodi="http://sodipodi.sourceforge.net/DTD/sodipodi-0.dtd"
    width="785.52pt"
    height="785.52pt"
    viewBox="0 0 785.52 785.52">
<defs/>
<path id="shape0" transform="matrix(-0.999999975135898 0 0 0.999999975135898 260.493269505433 339.611216443073)" fill="#650000" fill-rule="evenodd" stroke="#600000" stroke-width="3.6" stroke-linecap="square" stroke-linejoin="bevel" d="M0 0L21.1893 8.71209L23.7685 31.161L13.3851 39.6595C13.1776 39.7152 8.71585 26.4954 0 0Z"/><path id="shape1" transform="matrix(-0.999999975135898 0 0 0.999999975135898 233.531929999307 347.304806835535)" fill="#4e0000" fill-rule="evenodd" stroke="#510000" stroke-width="3.6" stroke-linecap="square" stroke-linejoin="bevel" d="M0 2.18043L100.644 0L101.147 20.0639L0.807692 19.9785C0.754729 19.9785 0.485498 14.0458 0 2.18043Z"/><path id="shape2" transform="matrix(0.999999975135898 0 0 0.999999975135898 443.528073105381 328.245537913404)" fill="#99a3a1" fill-rule="evenodd" stroke="#99a3a1" stroke-width="3.6" stroke-linecap="square" stroke-linejoin="bevel" d="M0.0218193 61.338C-0.0654579 61.338 0.109096 40.892 0.545482 0L138.967 0.0650156L139.622 61.338C139.302 62.539 92.7684 62.539 0.0218193 61.338Z"/><path id="shape3" transform="matrix(0.999999975135898 0 0 0.999999975135898 244.972484558929 306.698007308075)" fill="#800000" fill-rule="evenodd" stroke="#800000" stroke-width="3.6" stroke-linecap="square" stroke-linejoin="bevel" d="M0 84.4209L20.0301 21.9753L75.1893 0L136.589 18.0743L160.852 84.4209C160.852 85.9856 107.235 85.9856 0 84.4209Z"/><path id="shape4" transform="matrix(-0.999999975135898 0 0 0.999999975135898 137.141536830642 339.720747994051)" fill="#800000" fill-rule="evenodd" stroke="#800000" stroke-width="3.6" stroke-linecap="square" stroke-linejoin="bevel" d="M0 0.486L1.02352 35.235L19.2549 35.4058L16.6535 0C16.6535 0 11.1023 0.162 0 0.486Z"/><path id="shape5" transform="matrix(-0.999999975135898 0 0 0.999999975135898 238.049787985521 346.256118088766)" fill="#800000" fill-rule="evenodd" stroke="#800000" stroke-width="3.6" stroke-linecap="square" stroke-linejoin="bevel" d="M0 0.26927L11.168 0L13.1074 24.7072L2.31742 25.7744C2.31742 25.7022 1.54495 17.2005 0 0.26927Z"/><path id="shape6" transform="matrix(-0.999999975135898 0 0 0.999999975135898 386.317882141321 325.711553758181)" fill="#b27169" fill-rule="evenodd" stroke="#b26d69" stroke-width="3.6" stroke-linecap="square" stroke-linejoin="bevel" d="M0 58.4397L27.6888 55.7555L34.9667 42.2137L29.7276 33.901L28.5897 22.5511L34.3265 12.7152L39.9213 3.77091L32.9516 0L24.6782 2.11765L16.9499 5.7771L9.83808 10.8112L4.9783 19.9226L1.89649 28.2539C1.61202 29.5666 0.979856 39.6286 0 58.4397Z"/><path id="shape01" transform="matrix(0.999999975135898 0 0 0.999999975135898 201.229696130273 392.759990234375)" fill="#515655" fill-rule="evenodd" stroke="#515655" stroke-width="3.6" stroke-linecap="square" stroke-linejoin="bevel" d="M0 33.1686L21.9703 0L402.994 0L415.399 31.6449C415.317 31.715 276.85 32.2229 0 33.1686Z"/><path id="shape11" transform="matrix(0.999999975135898 0 0 0.999999975135898 108.33942263316 418.416787834593)" fill="#565c5b" fill-rule="evenodd" stroke="#565c5b" stroke-width="3.6" stroke-linecap="square" stroke-linejoin="bevel" d="M67.5771 0L522.751 1.53681L588.014 103.794L517.104 210.149L67.6697 209.361L0 104.582C0 104.424 22.5257 69.5637 67.5771 0Z"/><path id="shape21" transform="matrix(0.999999975135898 0 0 0.999999975135898 146.139420546581 440.993164973253)" fill="#333736" fill-rule="evenodd" stroke="#333736" stroke-width="3.6" stroke-linecap="square" stroke-linejoin="bevel" d="M0 83.5657C25.2617 40.2373 41.4514 12.3821 48.5691 0L469.646 0.551676L517.968 78.6006L460.327 163.217L43.7554 164.399C43.7554 164.399 29.1703 137.455 0 83.5657Z"/><ellipse id="shape31" transform="matrix(0.999999975135898 0 0 0.999999975135898 218.921140202841 489.549375826758)" rx="60.747421125017" ry="56.8527592409598" cx="60.747421125017" cy="56.8527592409598" fill="#4c5151" fill-rule="evenodd" stroke="#4c5151" stroke-width="3.6" stroke-linecap="square" stroke-linejoin="bevel"/><ellipse id="shape02" transform="matrix(0.999999968151771 0 0 0.999999968151771 344.270018237574 491.236187661963)" rx="60.747421125017" ry="56.8527592409598" cx="60.747421125017" cy="56.8527592409598" fill="#4c5151" fill-rule="evenodd" stroke="#4c5151" stroke-width="3.6" stroke-linecap="square" stroke-linejoin="bevel"/><ellipse id="shape01" transform="matrix(0.999999968151771 0 0 0.999999968151771 468.631469335632 488.509586626505)" rx="60.747421125017" ry="56.8527592409598" cx="60.747421125017" cy="56.8527592409598" fill="#4c5151" fill-rule="evenodd" stroke="#4c5151" stroke-width="3.6" stroke-linecap="square" stroke-linejoin="bevel"/><ellipse id="shape02" transform="matrix(0.999999945932894 0 0 0.999999945932894 572.627196669664 451.326134892969)" rx="31.5149555944117" ry="31.0242128160551" cx="31.5149555944117" cy="31.0242128160551" fill="#4c5151" fill-rule="evenodd" stroke="#4c5151" stroke-width="3.6" stroke-linecap="square" stroke-linejoin="bevel"/><ellipse id="shape03" transform="matrix(0.999999941342368 0 0 0.999999941342368 177.062183097304 448.609075144875)" rx="31.5149555944117" ry="31.0242128160551" cx="31.5149555944117" cy="31.0242128160551" fill="#4c5151" fill-rule="evenodd" stroke="#4c5151" stroke-width="3.6" stroke-linecap="square" stroke-linejoin="bevel"/><ellipse id="shape41" transform="matrix(0.999999975135898 0 0 0.999999975135898 225.007829795734 497.743595441751)" rx="53.5227287919836" ry="49.8530330974517" cx="53.5227287919836" cy="49.8530330974517" fill="#454949" fill-rule="evenodd" stroke="#454949" stroke-width="3.6" stroke-linecap="square" stroke-linejoin="bevel"/><ellipse id="shape04" transform="matrix(0.999999978054508 0 0 0.999999978054508 351.121893503797 497.70008277651)" rx="53.5227287919836" ry="49.8530330974517" cx="53.5227287919836" cy="49.8530330974517" fill="#454949" fill-rule="evenodd" stroke="#454949" stroke-width="3.6" stroke-linecap="square" stroke-linejoin="bevel"/><ellipse id="shape05" transform="matrix(0.999999934105682 0 0 0.999999934105682 476.035883253333 495.306695283256)" rx="53.5227287919836" ry="49.8530330974517" cx="53.5227287919836" cy="49.8530330974517" fill="#454949" fill-rule="evenodd" stroke="#454949" stroke-width="3.6" stroke-linecap="square" stroke-linejoin="bevel"/><ellipse id="shape06" transform="matrix(0.999999909926204 0 0 0.999999909926204 576.69120575148 456.207916174209)" rx="27.1322941675078" ry="26.0573252865029" cx="27.1322941675078" cy="26.0573252865029" fill="#454949" fill-rule="evenodd" stroke="#454949" stroke-width="3.6" stroke-linecap="square" stroke-linejoin="bevel"/><ellipse id="shape07" transform="matrix(0.999999887465201 0 0 0.999999887465201 181.238121047745 453.728090752568)" rx="27.1322941675078" ry="26.0573252865029" cx="27.1322941675078" cy="26.0573252865029" fill="#454949" fill-rule="evenodd" stroke="#454949" stroke-width="3.6" stroke-linecap="square" stroke-linejoin="bevel"/><ellipse id="shape08" transform="matrix(0.999999935633735 0 0 0.999999935633735 249.970292728562 440.958666199662)" rx="23.0674324418359" ry="21.587596843336" cx="23.0674324418359" cy="21.587596843336" fill="#4c5151" fill-rule="evenodd" stroke="#4c5151" stroke-width="3.6" stroke-linecap="square" stroke-linejoin="bevel"/><ellipse id="shape09" transform="matrix(0.999999932363823 0 0 0.999999932363823 305.667753854773 439.638063048767)" rx="23.0674324418359" ry="21.587596843336" cx="23.0674324418359" cy="21.587596843336" fill="#4c5151" fill-rule="evenodd" stroke="#4c5151" stroke-width="3.6" stroke-linecap="square" stroke-linejoin="bevel"/><ellipse id="shape010" transform="matrix(0.999999908619899 0 0 0.999999908619899 358.742351390181 440.366530606397)" rx="23.0674324418359" ry="21.587596843336" cx="23.0674324418359" cy="21.587596843336" fill="#4c5151" fill-rule="evenodd" stroke="#4c5151" stroke-width="3.6" stroke-linecap="square" stroke-linejoin="bevel"/><ellipse id="shape011" transform="matrix(0.999999921675385 0 0 0.999999921675385 410.922106954041 439.899712578651)" rx="23.0674324418359" ry="21.587596843336" cx="23.0674324418359" cy="21.587596843336" fill="#4c5151" fill-rule="evenodd" stroke="#4c5151" stroke-width="3.6" stroke-linecap="square" stroke-linejoin="bevel"/><ellipse id="shape012" transform="matrix(0.999999897239876 0 0 0.999999897239876 464.768130395499 440.904021007235)" rx="23.0674324418359" ry="21.587596843336" cx="23.0674324418359" cy="21.587596843336" fill="#4c5151" fill-rule="evenodd" stroke="#4c5151" stroke-width="3.6" stroke-linecap="square" stroke-linejoin="bevel"/><ellipse id="shape013" transform="matrix(0.999999867696906 0 0 0.999999867696906 517.781007446595 440.266427124727)" rx="23.0674324418359" ry="21.587596843336" cx="23.0674324418359" cy="21.587596843336" fill="#4c5151" fill-rule="evenodd" stroke="#4c5151" stroke-width="3.6" stroke-linecap="square" stroke-linejoin="bevel"/><ellipse id="shape014" transform="matrix(0.999999870030103 0 0 0.999999870030103 253.805144745881 445.67611142469)" rx="19.0002883251454" ry="17.4441435233168" cx="19.0002883251454" cy="17.4441435233168" fill="#454949" fill-rule="evenodd" stroke="#454949" stroke-width="3.6" stroke-linecap="square" stroke-linejoin="bevel"/><ellipse id="shape015" transform="matrix(0.999999825241427 0 0 0.999999825241427 309.383450411373 444.170432832458)" rx="19.0002883251454" ry="17.4441435233168" cx="19.0002883251454" cy="17.4441435233168" fill="#454949" fill-rule="evenodd" stroke="#454949" stroke-width="3.6" stroke-linecap="square" stroke-linejoin="bevel"/><ellipse id="shape016" transform="matrix(0.999999817130512 0 0 0.999999817130512 362.817198536833 444.582482167266)" rx="19.0002883251454" ry="17.4441435233168" cx="19.0002883251454" cy="17.4441435233168" fill="#454949" fill-rule="evenodd" stroke="#454949" stroke-width="3.6" stroke-linecap="square" stroke-linejoin="bevel"/><ellipse id="shape017" transform="matrix(0.999999800788419 0 0 0.999999800788419 415.047509510442 444.370617183505)" rx="19.0002883251454" ry="17.4441435233168" cx="19.0002883251454" cy="17.4441435233168" fill="#454949" fill-rule="evenodd" stroke="#454949" stroke-width="3.6" stroke-linecap="square" stroke-linejoin="bevel"/><ellipse id="shape018" transform="matrix(0.999999813649374 0 0 0.999999813649374 468.573831816218 445.065085333483)" rx="19.0002883251454" ry="17.4441435233168" cx="19.0002883251454" cy="17.4441435233168" fill="#454949" fill-rule="evenodd" stroke="#454949" stroke-width="3.6" stroke-linecap="square" stroke-linejoin="bevel"/><ellipse id="shape019" transform="matrix(0.999999823240063 0 0 0.999999823240063 472.883010095959 449.063035708696)" rx="19.0002883251454" ry="17.4441435233168" cx="19.0002883251454" cy="17.4441435233168" fill="#454949" fill-rule="evenodd" stroke="#454949" stroke-width="3.6" stroke-linecap="square" stroke-linejoin="bevel"/><path id="shape51" transform="matrix(0.999999975135898 0 0 0.999999975135898 479.437710490328 606.804319520662)" fill="none" stroke="#4a4f4f" stroke-width="3.6" stroke-linecap="square" stroke-linejoin="miter" stroke-miterlimit="2" d="M0.127279 0L0 22.6836"/><path id="shape61" transform="matrix(0.999999975135898 0 0 0.999999975135898 510.01713881968 605.700968178046)" fill="none" stroke="#4a4f4f" stroke-width="3.6" stroke-linecap="square" stroke-linejoin="miter" stroke-miterlimit="2" d="M0 0L0.223406 24.1399"/><path id="shape7" transform="matrix(0.999999975135898 0 0 0.999999975135898 538.806852877485 605.214968181893)" fill="none" stroke="#4a4f4f" stroke-width="3.6" stroke-linecap="square" stroke-linejoin="miter" stroke-miterlimit="2" d="M0.333346 0L0 24.6444"/><path id="shape8" transform="matrix(0.999999975135898 0 0 0.999999975135898 567.226281223936 603.809508733559)" fill="none" stroke="#4a4f4f" stroke-width="3.6" stroke-linecap="square" stroke-linejoin="miter" stroke-miterlimit="2" d="M0.551741 0L0 26.2032"/><path id="shape9" transform="matrix(0.999999975135898 0 0 0.999999975135898 598.206852407255 603.809508733559)" fill="none" stroke="#4a4f4f" stroke-width="3.6" stroke-linecap="square" stroke-linejoin="miter" stroke-miterlimit="2" d="M0.649117 0L0 26.3193"/><path id="shape10" transform="matrix(0.999999975135898 0 0 0.999999975135898 617.770280823813 589.058752093575)" fill="none" stroke="#4a4f4f" stroke-width="3.6" stroke-linecap="square" stroke-linejoin="miter" stroke-miterlimit="2" d="M0 0L26.328 14.8316"/><path id="shape11" transform="matrix(0.999999975135898 0 0 0.999999975135898 635.173709257471 562.092319874617)" fill="none" stroke="#4a4f4f" stroke-width="3.6" stroke-linecap="square" stroke-linejoin="miter" stroke-miterlimit="2" d="M0 0L26.62 14.589"/><path id="shape12" transform="matrix(0.999999975135898 0 0 0.999999975135898 655.323423383673 535.559347111688)" fill="none" stroke="#4a4f4f" stroke-width="3.6" stroke-linecap="square" stroke-linejoin="miter" stroke-miterlimit="2" d="M0 0L24.6458 13.3092"/><path id="shape13" transform="matrix(0.999999975135898 0 0 0.999999975135898 661.309709050569 500.859010059051)" fill="none" stroke="#4a4f4f" stroke-width="3.6" stroke-linecap="square" stroke-linejoin="miter" stroke-miterlimit="2" d="M0 9.83553L23.7579 0"/><path id="shape14" transform="matrix(0.999999975135898 0 0 0.999999975135898 646.46742345378 477.481258656417)" fill="none" stroke="#4a4f4f" stroke-width="3.6" stroke-linecap="square" stroke-linejoin="miter" stroke-miterlimit="2" d="M0 12.1051L23.8831 0"/><path id="shape15" transform="matrix(0.999999975135898 0 0 0.999999975135898 631.50170928654 449.098338212032)" fill="none" stroke="#4a4f4f" stroke-width="3.6" stroke-linecap="square" stroke-linejoin="miter" stroke-miterlimit="2" d="M0 12.5496L21.5243 0"/><path id="shape16" transform="matrix(0.999999975135898 0 0 0.999999975135898 616.103995122719 419.24689085086)" fill="none" stroke="#4a4f4f" stroke-width="3.6" stroke-linecap="square" stroke-linejoin="miter" stroke-miterlimit="2" d="M0 21.3586L15.8555 0"/><path id="shape17" transform="matrix(0.999999975135898 0 0 0.999999975135898 589.502765203348 417.670692600049)" fill="none" stroke="#4a4f4f" stroke-width="3.6" stroke-linecap="square" stroke-linejoin="miter" stroke-miterlimit="2" d="M0.557802 21.884L0 0"/><path id="shape18" transform="matrix(0.999999975135898 0 0 0.999999975135898 556.872011604325 417.471001835188)" fill="none" stroke="#4a4f4f" stroke-width="3.6" stroke-linecap="square" stroke-linejoin="miter" stroke-miterlimit="2" d="M0.171413 21.7947L0 0"/><path id="shape19" transform="matrix(0.999999975135898 0 0 0.999999975135898 528.805288028622 417.415274179878)" fill="none" stroke="#4a4f4f" stroke-width="3.6" stroke-linecap="square" stroke-linejoin="miter" stroke-miterlimit="2" d="M0.127279 20.9572L0 0"/><path id="shape20" transform="matrix(0.999999975135898 0 0 0.999999975135898 498.101744256301 417.605677002188)" fill="none" stroke="#4a4f4f" stroke-width="3.6" stroke-linecap="square" stroke-linejoin="miter" stroke-miterlimit="2" d="M0.313109 20.8456L0 0"/><path id="shape21" transform="matrix(0.999999975135898 0 0 0.999999975135898 463.114506947018 417.633540829843)" fill="none" stroke="#4a4f4f" stroke-width="3.6" stroke-linecap="square" stroke-linejoin="miter" stroke-miterlimit="2" d="M0.740347 21.3826L0 0"/><path id="shape22" transform="matrix(0.999999975135898 0 0 0.999999975135898 431.10560321598 417.995770589359)" fill="none" stroke="#4a4f4f" stroke-width="3.6" stroke-linecap="square" stroke-linejoin="miter" stroke-miterlimit="2" d="M0.410965 19.8907L0 0"/><path id="shape23" transform="matrix(0.999999975135898 0 0 0.999999975135898 392.759990234375 417.304298394342)" fill="none" stroke="#4a4f4f" stroke-width="3.6" stroke-linecap="square" stroke-linejoin="miter" stroke-miterlimit="2" d="M0 19.8246L0 0"/><path id="shape24" transform="matrix(-0.999999975135898 0 0 0.999999975135898 358.553562089611 417.145923845878)" fill="none" stroke="#4a4f4f" stroke-width="3.6" stroke-linecap="square" stroke-linejoin="miter" stroke-miterlimit="2" d="M0 20.7962L0.127279 0"/><path id="shape25" transform="matrix(0.999999975135898 0 0 0.999999975135898 325.282029190395 416.518987723638)" fill="none" stroke="#4a4f4f" stroke-width="3.6" stroke-linecap="square" stroke-linejoin="miter" stroke-miterlimit="2" d="M0 21.5251L0.559111 0"/><path id="shape26" transform="matrix(0.999999975135898 0 0 0.999999975135898 287.752844175137 416.639730976811)" fill="none" stroke="#4a4f4f" stroke-width="3.6" stroke-linecap="square" stroke-linejoin="miter" stroke-miterlimit="2" d="M0.812868 21.2993L0 0"/><path id="shape27" transform="matrix(0.999999975135898 0 0 0.999999975135898 251.641913244757 416.881217483155)" fill="none" stroke="#4a4f4f" stroke-width="3.6" stroke-linecap="square" stroke-linejoin="miter" stroke-miterlimit="2" d="M0.358085 20.5981L0 0"/><path id="shape28" transform="matrix(0.999999975135898 0 0 0.999999975135898 213.454512872156 417.02053662143)" fill="none" stroke="#4a4f4f" stroke-width="3.6" stroke-linecap="square" stroke-linejoin="miter" stroke-miterlimit="2" d="M0.282628 20.9973L0 0"/><path id="shape29" transform="matrix(0.999999975135898 0 0 0.999999975135898 170.721426330072 422.4493390429)" fill="none" stroke="#4a4f4f" stroke-width="3.6" stroke-linecap="square" stroke-linejoin="miter" stroke-miterlimit="2" d="M21.3849 15.9231L0 0"/><path id="shape30" transform="matrix(0.999999975135898 0 0 0.999999975135898 155.338824332539 447.38746479422)" fill="none" stroke="#4a4f4f" stroke-width="3.6" stroke-linecap="square" stroke-linejoin="miter" stroke-miterlimit="2" d="M23.1286 14.4181L0 0"/><path id="shape31" transform="matrix(0.999999975135898 0 0 0.999999975135898 138.290682922506 473.477123423016)" fill="none" stroke="#4a4f4f" stroke-width="3.6" stroke-linecap="square" stroke-linejoin="miter" stroke-miterlimit="2" d="M24.3779 17.6067L0 0"/><path id="shape32" transform="matrix(0.999999975135898 0 0 0.999999975135898 121.315272491186 499.571598022023)" fill="none" stroke="#4a4f4f" stroke-width="3.6" stroke-linecap="square" stroke-linejoin="miter" stroke-miterlimit="2" d="M26.1407 16.2982L0 0"/><path id="shape33" transform="matrix(0.999999975135898 0 0 0.999999975135898 122.875351984553 536.860932363077)" fill="none" stroke="#4a4f4f" stroke-width="3.6" stroke-linecap="square" stroke-linejoin="miter" stroke-miterlimit="2" d="M26.3987 0L0 12.1942"/><path id="shape34" transform="matrix(0.999999975135898 0 0 0.999999975135898 135.836012390985 558.486668672924)" fill="none" stroke="#4a4f4f" stroke-width="3.6" stroke-linecap="square" stroke-linejoin="miter" stroke-miterlimit="2" d="M25.1363 0L0 12.4045"/><path id="shape35" transform="matrix(0.999999975135898 0 0 0.999999975135898 152.473223771296 585.616823339621)" fill="none" stroke="#4a4f4f" stroke-width="3.6" stroke-linecap="square" stroke-linejoin="miter" stroke-miterlimit="2" d="M23.8647 0L0 12.1435"/><path id="shape36" transform="matrix(0.999999975135898 0 0 0.999999975135898 171.445099568254 605.425130342391)" fill="none" stroke="#4a4f4f" stroke-width="3.6" stroke-linecap="square" stroke-linejoin="miter" stroke-miterlimit="2" d="M15.1069 0L0 19.781"/><path id="shape37" transform="matrix(0.999999975135898 0 0 0.999999975135898 207.509613750753 607.949763437986)" fill="none" stroke="#4a4f4f" stroke-width="3.6" stroke-linecap="square" stroke-linejoin="miter" stroke-miterlimit="2" d="M0.166423 0L0 21.8168"/><path id="shape38" transform="matrix(0.999999975135898 0 0 0.999999975135898 233.54280919234 607.953803650389)" fill="none" stroke="#4a4f4f" stroke-width="3.6" stroke-linecap="square" stroke-linejoin="miter" stroke-miterlimit="2" d="M0 0L0.403657 21.5527"/><path id="shape39" transform="matrix(0.999999975135898 0 0 0.999999975135898 267.494134239039 607.93058379401)" fill="none" stroke="#4a4f4f" stroke-width="3.6" stroke-linecap="square" stroke-linejoin="miter" stroke-miterlimit="2" d="M0 0L0.155867 21.8452"/><path id="shape40" transform="matrix(0.999999975135898 0 0 0.999999975135898 301.834283324866 607.23777897669)" fill="none" stroke="#4a4f4f" stroke-width="3.6" stroke-linecap="square" stroke-linejoin="miter" stroke-miterlimit="2" d="M0 0L0.36657 22.6634"/><path id="shape41" transform="matrix(0.999999975135898 0 0 0.999999975135898 339.017140173372 607.23777897669)" fill="none" stroke="#4a4f4f" stroke-width="3.6" stroke-linecap="square" stroke-linejoin="miter" stroke-miterlimit="2" d="M0 0L0 22.2501"/><path id="shape42" transform="matrix(0.999999975135898 0 0 0.999999975135898 375.397711313943 607.80258978303)" fill="none" stroke="#4a4f4f" stroke-width="3.6" stroke-linecap="square" stroke-linejoin="miter" stroke-miterlimit="2" d="M0 0L0.505079 21.5924"/><path id="shape43" transform="matrix(0.999999975135898 0 0 0.999999975135898 409.217139617646 607.395400597064)" fill="none" stroke="#4a4f4f" stroke-width="3.6" stroke-linecap="square" stroke-linejoin="miter" stroke-miterlimit="2" d="M0 0L0.352821 22.0461"/><path id="shape44" transform="matrix(0.999999975135898 0 0 0.999999975135898 444.408099222358 606.778878917598)" fill="none" stroke="#4a4f4f" stroke-width="3.6" stroke-linecap="square" stroke-linejoin="miter" stroke-miterlimit="2" d="M0.152735 0L0 23.1595"/>
</svg>
